wokwi/wokwi.vcd
$version Generated by Wokwi.com $end
$date Sat, 30 May 2026 05:43:58 GMT $end
$timescale 1ns $end
$scope module logic $end
$var wire 1 ! D0 $end
$var wire 1 " D1 $end
$upscope $end
$enddefinitions $end
#0
0!
#0
0"
#219364075
1!
#219416719
0!
#219442044
1"
#219494688
0"
#219821238
1!
#14496571831
1!
