wokwi/wokwi.vcd
$version Generated by Wokwi.com $end
$date Sun, 31 May 2026 05:57:34 GMT $end
$timescale 1ns $end
$scope module logic $end
$var wire 1 ! D0 $end
$var wire 1 " D1 $end
$upscope $end
$enddefinitions $end
#0
0!
#0
0"
#219447825
1!
#219500469
0!
#219525794
1"
#219578438
0"
#219904988
1!
#223368294
1"
#325148338
0"
#1225148463
1"
#1325148338
0"
#2225148463
1"
#2325148338
0"
#3225148463
1"
#3325148338
0"
#4225148463
1"
#4325148338
0"
#5225148463
1"
#5325148338
0"
#6225148463
1"
#6325148338
0"
#7225148463
1"
#7325148338
0"
#8225148463
1"
#8325148338
0"
#9225148463
1"
#9325148338
0"
#10225148463
1"
#10325148338
0"
#11225148463
1"
#11325148338
0"
#12225148463
1"
#12325148338
0"
#13225148463
1"
#13325148338
0"
#14225148463
1"
#14325148338
0"
#15225148463
1"
#15325148338
0"
#16225148463
1"
#16325148338
0"
#17225148463
1"
#17325148338
0"
#18225148463
1"
#18325148338
0"
#19225148463
1"
#19325148338
0"
#20225148463
1"
#20325148338
0"
#21225148463
1"
#21325148338
0"
#22225148463
1"
#22325148338
0"
#23225148463
1"
#23325148338
0"
#24225148463
1"
#24325148338
0"
#25225148463
1"
#25325148338
0"
#26225148463
1"
#26325148338
0"
#27225148463
1"
#27325148338
0"
#28225148463
1"
#28325148338
0"
#29225148463
1"
#29325148338
0"
#30225148463
1"
#30325148338
0"
#31225148463
1"
#31325148338
0"
#31583268404
1!
